<svg xmlns="http://www.w3.org/2000/svg" width="25" height="24" viewBox="0 0 25 24" fill="none">
                        <path d="M7.25461 10.893C7.13019 10.7714 7.06161 10.6103 7.06161 10.4396C7.06161 10.2685 7.13019 10.1075 7.25461 9.98589C7.37771 9.86637 7.54873 9.7976 7.72371 9.7976L9.77114 9.7976L11.1402 7.18541C11.2532 7.01683 11.4057 6.87215 11.582 6.76647C11.7588 6.66121 11.9606 6.5937 12.1663 6.57147C12.3703 6.55176 12.5844 6.57231 12.781 6.63815C12.9792 6.70441 13.156 6.81092 13.3072 6.95434L16.0242 9.59715C16.1539 9.71918 16.2546 9.86428 16.3245 10.0266C16.3935 10.1884 16.4278 10.3591 16.4269 10.5327C16.43 10.7634 16.3724 10.9919 16.2616 11.1953C16.15 11.3983 15.986 11.5727 15.782 11.7019L13.1046 13.0967L13.1046 16.2202C13.1046 16.3913 13.0437 16.5532 12.9193 16.6735C12.7962 16.7939 12.6252 16.8622 12.4502 16.8622C12.273 16.8622 12.1068 16.796 11.9816 16.6735C11.8563 16.5532 11.7877 16.3917 11.7877 16.2202L11.7877 12.0011L13.349 10.7407L11.8463 9.27927L10.643 11.0817L7.72415 11.0817C7.54917 11.0817 7.37815 11.0129 7.25461 10.893Z" fill="#1976D2" />
                        <path d="M6.42345 20.0585C8.53199 20.0585 10.247 18.4222 10.247 16.4113C10.247 14.4005 8.53155 12.7642 6.42345 12.7642C4.31535 12.7642 2.59985 14.4005 2.59985 16.4113C2.59941 18.4226 4.31491 20.0585 6.42345 20.0585ZM6.42345 14.0902C7.76525 14.0902 8.85689 15.1314 8.85689 16.4113C8.85689 17.6912 7.76525 18.7325 6.42345 18.7325C5.08165 18.7325 3.99002 17.6912 3.99002 16.4113C3.99002 15.1314 5.08165 14.0902 6.42345 14.0902Z" fill="#1976D2" />
                        <path d="M18.7763 20.0585C20.8844 20.0585 22.5999 18.4226 22.5999 16.4113C22.5999 14.4005 20.8844 12.7642 18.7763 12.7642C16.6682 12.7642 14.9527 14.4005 14.9527 16.4113C14.9527 18.4226 16.6677 20.0585 18.7763 20.0585ZM18.7763 14.0902C20.1181 14.0902 21.2097 15.1314 21.2097 16.4113C21.2097 17.6912 20.1181 18.7325 18.7763 18.7325C17.4345 18.7325 16.3428 17.6912 16.3428 16.4113C16.3428 15.1314 17.4345 14.0902 18.7763 14.0902Z" fill="#1976D2" />
                        <path d="M10.2719 6.65159C10.0961 6.72036 9.91011 6.75559 9.72106 6.75559L9.71666 6.75559C9.38385 6.75475 9.05895 6.64236 8.8022 6.43981C8.54545 6.23726 8.36871 5.95377 8.30496 5.64261C8.24077 5.33019 8.29221 5.00435 8.45092 4.72505C8.60876 4.44492 8.86507 4.22476 9.17282 4.10356C9.48057 3.98279 9.82438 3.96685 10.1444 4.05995C10.4627 4.15263 10.7402 4.34931 10.9248 4.6135C11.1095 4.87854 11.193 5.19809 11.1605 5.51387C11.1284 5.83006 10.9811 6.12781 10.745 6.353C10.6078 6.48175 10.4487 6.58239 10.2719 6.65159Z" fill="#1976D2" />
                    </svg>