<svg xmlns="http://www.w3.org/2000/svg" width="24" height="24" viewBox="0 0 24 24" fill="none">
                    <path d="M16.757 18.981H8" stroke="white" stroke-width="1.5" stroke-linecap="round" stroke-linejoin="round" />
                    <path d="M8.97803 11.7419L12.378 14.6269L15.778 11.7419" stroke="white" stroke-width="1.5" stroke-linecap="round" stroke-linejoin="round" />
                    <path d="M12.3789 14.0579V6.49194" stroke="white" stroke-width="1.5" stroke-linecap="round" stroke-linejoin="round" />
                </svg>
