<svg width="25" height="25" viewBox="0 0 25 25" fill="none" xmlns="http://www.w3.org/2000/svg">
    <path d="M20.8919 11.3937L20.8921 11.3938C20.9612 11.4604 20.999 11.5496 21 11.6412C21.0009 11.7328 20.965 11.8226 20.8974 11.8905C20.8295 11.9587 20.7353 11.999 20.6348 12C20.5344 12.001 20.4392 11.9626 20.3698 11.8957L14.6295 6.35778L14.6278 6.3561C14.19 5.9379 13.6056 5.70529 12.9987 5.70529C12.3919 5.70529 11.8074 5.9379 11.3697 6.3561L11.3697 6.35609L11.3679 6.35778L5.62747 11.8959C5.5596 11.9614 5.46672 11.9994 5.36841 11.9994C5.29348 11.9992 5.22096 11.977 5.16007 11.9367C5.09917 11.8963 5.05307 11.8399 5.02636 11.7755C4.99968 11.7112 4.99315 11.6411 5.00725 11.5736C5.02133 11.5062 5.05562 11.4433 5.10706 11.3933C5.10719 11.3932 5.10731 11.393 5.10743 11.3929L10.8451 5.85862C10.8454 5.85833 10.8457 5.85804 10.846 5.85775C11.4222 5.30847 12.1945 5 12.9999 5C13.8053 5 14.5776 5.30847 15.1537 5.85776C15.154 5.85805 15.1543 5.85834 15.1546 5.85862L20.8919 11.3937Z" fill="#1976D2" stroke="#1976D2" />
    <path d="M18.5 6.25V9H18V6.25C18 6.11193 18.1119 6 18.25 6C18.3881 6 18.5 6.11193 18.5 6.25Z" fill="#1976D2" stroke="#1976D2" />
    <mask id="path-3-inside-1_1108_6378" fill="white">
        <path fill-rule="evenodd" clip-rule="evenodd" d="M19.5 14.5L19.5 13.2705L13.8238 7.82789C13.6044 7.61772 13.3095 7.5 13.0023 7.5C12.6952 7.5 12.4003 7.61772 12.1809 7.82789L6.5 13.2705V17.9504C6.5 18.3614 6.66703 18.7555 6.96435 19.0461C7.26167 19.3367 7.66492 19.5 8.0854 19.5H11.2538V15.2021H14.7403V17.9642C15.3884 15.9542 17.2744 14.5 19.5 14.5Z" />
    </mask>
    <path fill-rule="evenodd" clip-rule="evenodd" d="M19.5 14.5L19.5 13.2705L13.8238 7.82789C13.6044 7.61772 13.3095 7.5 13.0023 7.5C12.6952 7.5 12.4003 7.61772 12.1809 7.82789L6.5 13.2705V17.9504C6.5 18.3614 6.66703 18.7555 6.96435 19.0461C7.26167 19.3367 7.66492 19.5 8.0854 19.5H11.2538V15.2021H14.7403V17.9642C15.3884 15.9542 17.2744 14.5 19.5 14.5Z" fill="#1976D2" />
    <path d="M19.5 13.2705L20.5 13.2705V12.8439L20.1921 12.5487L19.5 13.2705ZM19.5 14.5V15.5H20.5L20.5 14.5L19.5 14.5ZM13.8238 7.82789L14.5159 7.10608L14.5156 7.10581L13.8238 7.82789ZM12.1809 7.82789L12.8727 8.54997L12.8727 8.54996L12.1809 7.82789ZM6.5 13.2705L5.8082 12.5484L5.5 12.8437V13.2705H6.5ZM6.96435 19.0461L7.66335 18.331L7.66335 18.331L6.96435 19.0461ZM11.2538 19.5V20.5H12.2538V19.5H11.2538ZM11.2538 15.2021V14.2021H10.2538V15.2021H11.2538ZM14.7403 15.2021H15.7403V14.2021H14.7403V15.2021ZM14.7403 17.9642H13.7403L15.692 18.2711L14.7403 17.9642ZM18.5 13.2705L18.5 14.5L20.5 14.5L20.5 13.2705L18.5 13.2705ZM13.1317 8.54969L18.8079 13.9923L20.1921 12.5487L14.5159 7.10608L13.1317 8.54969ZM13.0023 8.5C13.0549 8.5 13.1011 8.52035 13.132 8.54996L14.5156 7.10581C14.1078 6.71509 13.5641 6.5 13.0023 6.5V8.5ZM12.8727 8.54996C12.9036 8.52035 12.9498 8.5 13.0023 8.5V6.5C12.4406 6.5 11.8969 6.71509 11.4891 7.10581L12.8727 8.54996ZM7.1918 13.9926L12.8727 8.54997L11.4891 7.1058L5.8082 12.5484L7.1918 13.9926ZM7.5 17.9504V13.2705H5.5V17.9504H7.5ZM7.66335 18.331C7.556 18.2261 7.5 18.0887 7.5 17.9504H5.5C5.5 18.634 5.77807 19.285 6.26536 19.7612L7.66335 18.331ZM8.0854 18.5C7.92287 18.5 7.77147 18.4367 7.66335 18.331L6.26536 19.7612C6.75187 20.2368 7.40697 20.5 8.0854 20.5V18.5ZM11.2538 18.5H8.0854V20.5H11.2538V18.5ZM10.2538 15.2021V19.5H12.2538V15.2021H10.2538ZM14.7403 14.2021H11.2538V16.2021H14.7403V14.2021ZM15.7403 17.9642V15.2021H13.7403V17.9642H15.7403ZM15.692 18.2711C16.2108 16.662 17.721 15.5 19.5 15.5V13.5C16.8277 13.5 14.5659 15.2463 13.7885 17.6573L15.692 18.2711Z" fill="#1976D2" mask="url(#path-3-inside-1_1108_6378)" />
    <path d="M16.5 19.5H22.5" stroke="#1976D2" stroke-width="1.5" stroke-linecap="round" />
    <path d="M19.5 16.5L19.5 22.5" stroke="#1976D2" stroke-width="1.5" stroke-linecap="round" />
</svg>