<svg width="24" height="24" viewBox="0 0 24 24" fill="none" xmlns="http://www.w3.org/2000/svg">
                        <path d="M19 12.7705V17.4515C18.9997 17.8623 18.8325 18.2562 18.5352 18.5465C18.2379 18.8369 17.8349 19 17.4146 19H14.2403V14.7021H10.7538V19H7.5854C7.16492 19 6.76167 18.8367 6.46435 18.5461C6.16703 18.2555 6 17.8614 6 17.4504V12.7705L11.6809 7.32789C11.9003 7.11772 12.1952 7 12.5023 7C12.8095 7 13.1044 7.11772 13.3238 7.32789L19 12.7705Z" fill="#05C6CF" />
                        <path d="M4.86764 11.9994C4.69524 11.999 4.52685 11.9482 4.38385 11.8535C4.24086 11.7587 4.12971 11.6242 4.06454 11.4672C3.99936 11.3101 3.9831 11.1375 4.01781 10.9713C4.05253 10.8051 4.13665 10.6529 4.2595 10.5338L9.99995 4.99689C10.67 4.35754 11.5666 4 12.4999 4C13.4332 4 14.3298 4.35754 14.9998 4.99689L20.7391 10.5338C20.9037 10.6926 20.9976 10.9092 21 11.136C21.0023 11.3628 20.9131 11.5812 20.7518 11.7432C20.5905 11.9053 20.3704 11.9976 20.1399 12C19.9094 12.0023 19.6875 11.9144 19.5228 11.7557L13.7824 6.21762C13.4385 5.88907 12.978 5.70529 12.4987 5.70529C12.0194 5.70529 11.559 5.88907 11.2151 6.21762L5.47462 11.7557C5.31255 11.9121 5.09459 11.9996 4.86764 11.9994Z" fill="#05C6CF" />
                        <path d="M17 5.75C17 5.33579 17.3358 5 17.75 5C18.1642 5 18.5 5.33579 18.5 5.75V9H17V5.75Z" fill="#05C6CF" />
                    </svg>