<svg xmlns="http://www.w3.org/2000/svg" width="21" height="19" viewBox="0 0 21 19" fill="none">
                  <path d="M13.9159 17.6354L12.1006 16.5757L10.2854 15.516C10.1495 15.4359 9.99576 15.3937 9.83936 15.3937C9.68295 15.3937 9.52923 15.4359 9.39328 15.516L7.57919 16.5757L5.7651 17.6354C5.55546 17.7576 5.30761 17.7887 5.07591 17.7218C4.84421 17.6549 4.64757 17.4955 4.52911 17.2785C4.47606 17.1806 4.44011 17.0738 4.42293 16.9629C4.40598 16.8518 4.40845 16.7384 4.43023 16.6281L4.84204 14.5128L5.25385 12.3968C5.28584 12.2386 5.27771 12.0745 5.23025 11.9205C5.18279 11.7665 5.09762 11.6279 4.98306 11.5182L3.44931 10.0567L1.91613 8.59524C1.78699 8.47356 1.69445 8.31587 1.6496 8.14106C1.60476 7.96625 1.60951 7.78174 1.6633 7.60966C1.71708 7.43758 1.81761 7.28523 1.95284 7.17087C2.08806 7.05651 2.25224 6.985 2.42569 6.96491L4.49484 6.71687L6.56343 6.46941C6.7187 6.45114 6.86677 6.39157 6.99327 6.29648C7.11976 6.2014 7.22038 6.07403 7.28536 5.92674L8.15111 3.96394L9.01742 2.00055C9.06693 1.8878 9.13743 1.78627 9.22486 1.7018C9.3123 1.61733 9.41496 1.55158 9.52696 1.5083C9.63897 1.46503 9.75811 1.44509 9.87756 1.44963C9.99701 1.45417 10.1144 1.48309 10.2231 1.53474C10.321 1.58154 10.4101 1.64578 10.4866 1.72456C10.563 1.80364 10.625 1.89634 10.6697 1.99822L11.536 3.96161L12.4018 5.92441C12.4672 6.07136 12.5679 6.19844 12.6944 6.29346C12.8208 6.38848 12.9686 6.44826 13.1237 6.46708L15.1929 6.71454L17.2614 6.96258C17.4348 6.98276 17.5989 7.05425 17.7341 7.16851C17.8694 7.28277 17.97 7.43497 18.024 7.60692C18.0779 7.77887 18.083 7.96328 18.0385 8.13813C17.9941 8.31298 17.902 8.47087 17.7733 8.59291" stroke="#1976D2" stroke-width="1.5" stroke-miterlimit="10" stroke-linecap="round" />
                  <path d="M16.6456 10.5422L16.6456 16.3874" stroke="#1976D2" stroke-width="1.5" stroke-linecap="round" />
                  <path d="M19.5682 13.4648H13.723" stroke="#1976D2" stroke-width="1.5" stroke-linecap="round" />
                </svg>