<svg xmlns="http://www.w3.org/2000/svg" width="66" height="10" viewBox="0 0 66 10" fill="none">
                      <path d="M60.8245 0.345513L61.9646 2.7532C62.0076 2.84335 62.074 2.92129 62.1572 2.97954C62.2405 3.0378 62.3378 3.07442 62.4399 3.08586L65.1633 3.38962C65.2766 3.40309 65.3836 3.44759 65.4716 3.51784C65.5595 3.58809 65.6248 3.68117 65.6598 3.78609C65.6947 3.89101 65.6978 4.00338 65.6688 4.10996C65.6397 4.21654 65.5796 4.31285 65.4957 4.38754L63.477 6.17915C63.4019 6.24588 63.3457 6.33008 63.3139 6.42371C63.2821 6.51733 63.2758 6.61725 63.2953 6.71396L63.8382 9.30774C63.8607 9.41611 63.8506 9.52845 63.8089 9.63141C63.7673 9.73438 63.6959 9.82365 63.6033 9.88863C63.5107 9.95361 63.4007 9.99155 63.2864 9.99798C63.1721 10.0044 63.0583 9.97905 62.9585 9.9249L60.5697 8.62533C60.4802 8.5764 60.379 8.55068 60.2761 8.55068C60.1732 8.55068 60.072 8.5764 59.9825 8.62533L57.5949 9.9249C57.4951 9.97953 57.3811 10.0053 57.2666 9.99909C57.1521 9.99287 57.0419 9.95493 56.9491 9.88984C56.8563 9.82475 56.7849 9.73526 56.7434 9.63203C56.7019 9.52881 56.6921 9.41621 56.7151 9.30774L57.2569 6.71396C57.2768 6.61735 57.2706 6.51744 57.2389 6.4238C57.2073 6.33017 57.1513 6.24593 57.0763 6.17915L55.0576 4.38754C54.9732 4.31304 54.9127 4.21673 54.8834 4.11002C54.854 4.00332 54.8571 3.89073 54.8921 3.78563C54.9271 3.68053 54.9926 3.58732 55.0809 3.51712C55.1692 3.44692 55.2765 3.40267 55.39 3.38962L58.1134 3.08586C58.2156 3.07462 58.313 3.03808 58.3963 2.9798C58.4795 2.92152 58.5458 2.84347 58.5887 2.7532L59.7288 0.345513C59.7755 0.242771 59.8522 0.155402 59.9495 0.094041C60.0468 0.0326797 60.1604 0 60.2766 0C60.3929 0 60.5066 0.0326797 60.6039 0.094041C60.7012 0.155402 60.7778 0.242771 60.8245 0.345513Z" fill="#FFBB33" />
                      <path d="M45.8477 0.345513L46.9878 2.7532C47.0308 2.84335 47.0972 2.92129 47.1804 2.97954C47.2636 3.0378 47.361 3.07442 47.4631 3.08586L50.1865 3.38962C50.2998 3.40309 50.4068 3.44759 50.4948 3.51784C50.5827 3.58809 50.648 3.68117 50.683 3.78609C50.7179 3.89101 50.721 4.00338 50.6919 4.10996C50.6629 4.21654 50.6028 4.31285 50.5189 4.38754L48.5002 6.17915C48.4251 6.24588 48.3689 6.33008 48.3371 6.42371C48.3053 6.51733 48.2989 6.61725 48.3185 6.71396L48.8614 9.30774C48.8839 9.41611 48.8738 9.52845 48.8321 9.63141C48.7905 9.73438 48.7191 9.82365 48.6265 9.88863C48.5339 9.95361 48.4239 9.99155 48.3096 9.99798C48.1953 10.0044 48.0815 9.97905 47.9817 9.9249L45.5929 8.62533C45.5034 8.5764 45.4022 8.55068 45.2993 8.55068C45.1964 8.55068 45.0952 8.5764 45.0057 8.62533L42.618 9.9249C42.5183 9.97953 42.4043 10.0053 42.2898 9.99909C42.1753 9.99287 42.0651 9.95493 41.9723 9.88984C41.8795 9.82475 41.8081 9.73526 41.7666 9.63203C41.7251 9.52881 41.7153 9.41621 41.7383 9.30774L42.2801 6.71396C42.2999 6.61735 42.2938 6.51744 42.2621 6.4238C42.2305 6.33017 42.1745 6.24593 42.0995 6.17915L40.0808 4.38754C39.9964 4.31304 39.9359 4.21673 39.9066 4.11002C39.8772 4.00332 39.8803 3.89073 39.9153 3.78563C39.9503 3.68053 40.0158 3.58732 40.1041 3.51712C40.1924 3.44692 40.2997 3.40267 40.4132 3.38962L43.1366 3.08586C43.2388 3.07462 43.3362 3.03808 43.4195 2.9798C43.5027 2.92152 43.569 2.84347 43.6119 2.7532L44.752 0.345513C44.7987 0.242771 44.8754 0.155402 44.9727 0.094041C45.07 0.0326797 45.1836 0 45.2998 0C45.4161 0 45.5298 0.0326797 45.6271 0.094041C45.7244 0.155402 45.801 0.242771 45.8477 0.345513Z" fill="#FFBB33" />
                      <path d="M32.5522 0.345513L33.6923 2.7532C33.7353 2.84335 33.8016 2.92129 33.8849 2.97954C33.9681 3.0378 34.0655 3.07442 34.1676 3.08586L36.891 3.38962C37.0043 3.40309 37.1113 3.44759 37.1992 3.51784C37.2872 3.58809 37.3525 3.68117 37.3874 3.78609C37.4224 3.89101 37.4255 4.00338 37.3964 4.10996C37.3673 4.21654 37.3073 4.31285 37.2234 4.38754L35.2047 6.17915C35.1296 6.24588 35.0734 6.33008 35.0416 6.42371C35.0098 6.51733 35.0034 6.61725 35.023 6.71396L35.5659 9.30774C35.5884 9.41611 35.5782 9.52845 35.5366 9.63141C35.495 9.73438 35.4236 9.82365 35.331 9.88863C35.2383 9.95361 35.1284 9.99155 35.0141 9.99798C34.8998 10.0044 34.786 9.97905 34.6862 9.9249L32.2974 8.62533C32.2078 8.5764 32.1067 8.55068 32.0038 8.55068C31.9009 8.55068 31.7997 8.5764 31.7101 8.62533L29.3225 9.9249C29.2228 9.97953 29.1088 10.0053 28.9943 9.99909C28.8797 9.99287 28.7695 9.95493 28.6768 9.88984C28.584 9.82475 28.5125 9.73526 28.4711 9.63203C28.4296 9.52881 28.4198 9.41621 28.4428 9.30774L28.9846 6.71396C29.0044 6.61735 28.9982 6.51744 28.9666 6.4238C28.935 6.33017 28.879 6.24593 28.804 6.17915L26.7853 4.38754C26.7009 4.31304 26.6404 4.21673 26.611 4.11002C26.5817 4.00332 26.5848 3.89073 26.6198 3.78563C26.6548 3.68053 26.7203 3.58732 26.8086 3.51712C26.8968 3.44692 27.0041 3.40267 27.1177 3.38962L29.8411 3.08586C29.9433 3.07462 30.0407 3.03808 30.1239 2.9798C30.2072 2.92152 30.2735 2.84347 30.3163 2.7532L31.4565 0.345513C31.5032 0.242771 31.5798 0.155402 31.6771 0.094041C31.7744 0.0326797 31.8881 0 32.0043 0C32.1205 0 32.2342 0.0326797 32.3315 0.094041C32.4288 0.155402 32.5055 0.242771 32.5522 0.345513Z" fill="#FFBB33" />
                      <path d="M19.2567 0.345513L20.3968 2.7532C20.4398 2.84335 20.5061 2.92129 20.5894 2.97954C20.6726 3.0378 20.77 3.07442 20.8721 3.08586L23.5955 3.38962C23.7088 3.40309 23.8157 3.44759 23.9037 3.51784C23.9917 3.58809 24.057 3.68117 24.0919 3.78609C24.1269 3.89101 24.13 4.00338 24.1009 4.10996C24.0718 4.21654 24.0118 4.31285 23.9278 4.38754L21.9092 6.17915C21.8341 6.24588 21.7779 6.33008 21.7461 6.42371C21.7143 6.51733 21.7079 6.61725 21.7275 6.71396L22.2704 9.30774C22.2929 9.41611 22.2827 9.52845 22.2411 9.63141C22.1994 9.73438 22.1281 9.82365 22.0354 9.88863C21.9428 9.95361 21.8328 9.99155 21.7185 9.99798C21.6042 10.0044 21.4904 9.97905 21.3906 9.9249L19.0019 8.62533C18.9123 8.5764 18.8111 8.55068 18.7082 8.55068C18.6053 8.55068 18.5042 8.5764 18.4146 8.62533L16.027 9.9249C15.9272 9.97953 15.8132 10.0053 15.6987 9.99909C15.5842 9.99287 15.474 9.95493 15.3812 9.88984C15.2885 9.82475 15.217 9.73526 15.1755 9.63203C15.134 9.52881 15.1242 9.41621 15.1473 9.30774L15.6891 6.71396C15.7089 6.61735 15.7027 6.51744 15.6711 6.4238C15.6395 6.33017 15.5834 6.24593 15.5084 6.17915L13.4898 4.38754C13.4054 4.31304 13.3448 4.21673 13.3155 4.11002C13.2862 4.00332 13.2892 3.89073 13.3242 3.78563C13.3592 3.68053 13.4248 3.58732 13.513 3.51712C13.6013 3.44692 13.7086 3.40267 13.8221 3.38962L16.5455 3.08586C16.6477 3.07462 16.7451 3.03808 16.8284 2.9798C16.9117 2.92152 16.9779 2.84347 17.0208 2.7532L18.1609 0.345513C18.2076 0.242771 18.2843 0.155402 18.3816 0.094041C18.4789 0.0326797 18.5926 0 18.7088 0C18.825 0 18.9387 0.0326797 19.036 0.094041C19.1333 0.155402 19.21 0.242771 19.2567 0.345513Z" fill="#FFBB33" />
                      <path d="M5.96113 0.345513L7.10121 2.7532C7.14424 2.84335 7.21057 2.92129 7.29381 2.97954C7.37705 3.0378 7.47442 3.07442 7.57655 3.08586L10.2999 3.38962C10.4132 3.40309 10.5202 3.44759 10.6082 3.51784C10.6961 3.58809 10.7614 3.68117 10.7964 3.78609C10.8313 3.89101 10.8344 4.00338 10.8053 4.10996C10.7763 4.21654 10.7162 4.31285 10.6323 4.38754L8.61364 6.17915C8.53853 6.24588 8.48234 6.33008 8.45053 6.42371C8.41872 6.51733 8.41235 6.61725 8.43193 6.71396L8.97482 9.30774C8.99735 9.41611 8.98717 9.52845 8.94554 9.63141C8.9039 9.73438 8.83251 9.82365 8.73989 9.88863C8.64727 9.95361 8.5373 9.99155 8.423 9.99798C8.3087 10.0044 8.1949 9.97905 8.09509 9.9249L5.70632 8.62533C5.61677 8.5764 5.5156 8.55068 5.41269 8.55068C5.30979 8.55068 5.20862 8.5764 5.11907 8.62533L2.73145 9.9249C2.63169 9.97953 2.51771 10.0053 2.4032 9.99909C2.28868 9.99287 2.17848 9.95493 2.0857 9.88984C1.99292 9.82475 1.92148 9.73526 1.87999 9.63203C1.8385 9.52881 1.8287 9.41621 1.85172 9.30774L2.39353 6.71396C2.41335 6.61735 2.40716 6.51744 2.37554 6.4238C2.34392 6.33017 2.2879 6.24593 2.2129 6.17915L0.194241 4.38754C0.109842 4.31304 0.0493171 4.21673 0.0199725 4.11002C-0.00937222 4.00332 -0.00631121 3.89073 0.028696 3.78563C0.0637033 3.68053 0.129237 3.58732 0.217504 3.51712C0.305771 3.44692 0.413055 3.40267 0.526616 3.38962L3.24999 3.08586C3.35219 3.07462 3.44959 3.03808 3.53287 2.9798C3.61614 2.92152 3.68241 2.84347 3.72526 2.7532L4.86541 0.345513C4.9121 0.242771 4.98877 0.155402 5.08607 0.094041C5.18336 0.0326797 5.29702 0 5.41324 0C5.52945 0 5.64317 0.0326797 5.74047 0.094041C5.83777 0.155402 5.91444 0.242771 5.96113 0.345513Z" fill="#FFBB33" />
                    </svg>