<svg xmlns="http://www.w3.org/2000/svg" width="8" height="9" viewBox="0 0 8 9" fill="none">
                    <path d="M6.32305 4.96756V6.4655C6.32318 6.55484 6.30565 6.64335 6.27147 6.72591C6.23729 6.80848 6.18709 6.8835 6.12383 6.94668C6.06056 7.00986 5.98544 7.05993 5.90276 7.09406C5.82008 7.12819 5.73148 7.1457 5.64202 7.14557H1.591C1.41083 7.14504 1.23826 7.07312 1.11114 6.94561C0.984022 6.81811 0.912757 6.64543 0.913023 6.4655V2.42204C0.913552 2.24272 0.985178 2.07091 1.11224 1.94421C1.2393 1.81751 1.41144 1.74623 1.591 1.74597H3.10302C3.00291 1.49006 2.99686 1.207 3.08599 0.947076C3.09889 0.907251 3.11497 0.868517 3.13403 0.831238H1.591C1.16929 0.83203 0.765116 0.999666 0.466918 1.29746C0.16872 1.59525 0.000792948 1.99892 0 2.42006V6.4655C0.000264915 6.8868 0.167995 7.29078 0.466308 7.58868C0.76462 7.88659 1.16912 8.05406 1.591 8.05432H5.64202C6.06389 8.05406 6.4684 7.88659 6.76671 7.58868C7.06502 7.29078 7.23275 6.8868 7.23302 6.4655V4.94558C7.07975 5.01232 6.91419 5.04634 6.74699 5.04545C6.60205 5.04596 6.45832 5.01955 6.32305 4.96756Z" fill="#8E8E8E" />
                    <path d="M7.02899 0.412908L4.14294 0.825323C4.04987 0.838381 3.96229 0.877114 3.89007 0.937165C3.81784 0.997217 3.76384 1.0762 3.73412 1.16524C3.7044 1.25427 3.70016 1.34984 3.72186 1.44116C3.74355 1.53247 3.79038 1.61591 3.85699 1.68212L4.54699 2.37115L2.49297 4.42229C2.34551 4.57658 2.26433 4.78234 2.26678 4.99561C2.26922 5.20888 2.35508 5.41272 2.50604 5.5636C2.65699 5.71448 2.86107 5.80041 3.07464 5.80304C3.2882 5.80567 3.49435 5.72477 3.64898 5.57765L5.70397 3.52654L6.39398 4.21558C6.46043 4.28172 6.54397 4.32809 6.63531 4.34955C6.72665 4.371 6.82218 4.36668 6.91119 4.33705C7.0002 4.30742 7.07922 4.25367 7.1394 4.18178C7.19958 4.1099 7.23853 4.0227 7.25195 3.92997L7.66394 1.04703C7.67632 0.960879 7.66846 0.873032 7.64093 0.79046C7.61339 0.707887 7.56699 0.632855 7.50537 0.571316C7.44374 0.509776 7.36857 0.463412 7.28588 0.435916C7.2032 0.408421 7.11526 0.400546 7.02899 0.412908Z" fill="#8E8E8E" />
                </svg>