<svg xmlns="http://www.w3.org/2000/svg" width="24" height="24" viewBox="0 0 24 24" fill="none">
                    <g clip-path="url(#clip0_1_1128)">
                        <path d="M17.2381 5.59048C17.1763 5.32542 17.0731 5.05694 16.9247 4.82806C16.7799 4.55615 16.0549 3.71642 15.6574 3.46697C15.2254 3.12803 14.5883 3.24874 14.2965 3.74457C13.9146 4.31961 13.1922 5.47312 12.8103 6.04817C12.4805 6.49753 12.5933 7.15675 13.0253 7.49569C13.3397 7.73828 14.2451 8.41959 14.2451 8.41959C13.3487 11.6817 10.6106 13.4487 10.6106 13.4487C10.6106 13.4487 9.70878 12.7244 9.39077 12.5248C8.95885 12.1859 8.36682 12.267 7.99553 12.7129C7.57561 13.2415 6.69424 14.2952 6.23279 14.8204C5.8615 15.2663 5.93635 15.8791 6.36472 16.2611C6.71715 16.5501 7.22857 16.9389 8.04845 17.1366C8.29406 17.2002 8.58474 17.2242 8.87898 17.2052C10.9731 17.1614 12.7098 15.875 14.9245 12.8516C17.9481 8.63861 17.2689 5.723 17.2381 5.59048Z" fill="#1976D2" />
                    </g>
                    <defs>
                        <clipPath id="clip0_1_1128">
                            <rect width="24" height="24" fill="white" />
                        </clipPath>
                    </defs>
                </svg>