<svg xmlns="http://www.w3.org/2000/svg" width="22" height="22" viewBox="0 0 22 22" fill="none">
              <path d="M10.999 21.4523C16.7715 21.4523 21.451 16.7728 21.451 11.0003C21.451 5.22782 16.7715 0.548302 10.999 0.548302C5.22651 0.548302 0.546997 5.22782 0.546997 11.0003C0.546997 16.7728 5.22651 21.4523 10.999 21.4523Z" fill="#F39A60" />
              <path d="M11 1.1C12.958 1.1 14.8721 1.68062 16.5002 2.76845C18.1282 3.85627 19.3971 5.40244 20.1464 7.21143C20.8957 9.02042 21.0918 11.011 20.7098 12.9314C20.3278 14.8518 19.3849 16.6158 18.0004 18.0004C16.6158 19.3849 14.8518 20.3278 12.9314 20.7098C11.011 21.0918 9.02041 20.8957 7.21143 20.1464C5.40244 19.3971 3.85632 18.1282 2.76849 16.5001C1.68067 14.8721 1.10004 12.958 1.10004 11C1.10004 8.37435 2.14302 5.85625 3.99963 3.99964C5.85624 2.14303 8.37436 1.1 11 1.1ZM11 0C8.82441 0 6.69767 0.645137 4.88873 1.85383C3.07979 3.06253 1.6699 4.78049 0.83734 6.79048C0.00477606 8.80047 -0.213074 11.0122 0.211363 13.146C0.635801 15.2798 1.68348 17.2398 3.22186 18.7782C4.76024 20.3165 6.72021 21.3642 8.854 21.7886C10.9878 22.2131 13.1995 21.9952 15.2095 21.1627C17.2195 20.3301 18.9375 18.9202 20.1462 17.1113C21.3549 15.3023 22 13.1756 22 11C21.9966 8.08367 20.8366 5.28778 18.7744 3.22562C16.7123 1.16347 13.9163 0.00344047 11 0Z" fill="white" />
              <path d="M17.2514 6.44695C16.4514 5.64695 14.8324 5.96794 13.7644 7.03594C12.7694 8.03594 12.4564 9.12695 12.9284 9.96794C12.9551 10.0146 12.9651 10.0689 12.9567 10.122C12.9483 10.1751 12.9221 10.2238 12.8824 10.2599L7.21635 15.4109C7.07578 15.5544 6.99798 15.7479 7.00004 15.9487C7.0021 16.1496 7.08385 16.3414 7.22733 16.4819C7.37082 16.6225 7.56426 16.7003 7.76511 16.6982C7.96597 16.6962 8.15781 16.6144 8.29838 16.4709L13.4414 10.8139C13.4781 10.7747 13.5268 10.7489 13.5799 10.7405C13.633 10.7322 13.6874 10.7418 13.7343 10.7679C14.5753 11.2399 15.6704 10.9269 16.6654 9.93194C17.7334 8.86394 18.0534 7.24394 17.2544 6.44494L17.2514 6.44695Z" fill="white" stroke="white" stroke-width="0.167" stroke-miterlimit="10" />
              <path d="M6.51709 5.50313C6.45437 5.56626 6.41919 5.65164 6.41919 5.74063C6.41919 5.82962 6.45437 5.91499 6.51709 5.97813L8.40905 7.87013C8.49564 7.95693 8.54431 8.07452 8.54431 8.19713C8.54431 8.31973 8.49564 8.43733 8.40905 8.52413C8.32226 8.61072 8.20469 8.65935 8.08209 8.65935C7.95948 8.65935 7.84186 8.61072 7.75506 8.52413L5.86511 6.63213C5.83406 6.60086 5.79714 6.57605 5.75647 6.55912C5.71579 6.54219 5.67217 6.53347 5.62811 6.53347C5.58405 6.53347 5.54043 6.54219 5.49975 6.55912C5.45908 6.57605 5.42215 6.60086 5.39111 6.63213L5.34106 6.68213C5.30977 6.71326 5.28495 6.75026 5.268 6.79102C5.25106 6.83178 5.24237 6.87549 5.24237 6.91963C5.24237 6.96377 5.25106 7.00747 5.268 7.04823C5.28495 7.08899 5.30977 7.126 5.34106 7.15713L7.23211 9.04813C7.3187 9.13492 7.36731 9.25252 7.36731 9.37513C7.36731 9.49773 7.3187 9.61533 7.23211 9.70213C7.18929 9.74509 7.13836 9.77918 7.08233 9.80244C7.0263 9.8257 6.96624 9.83767 6.90557 9.83767C6.84491 9.83767 6.78484 9.8257 6.72882 9.80244C6.67279 9.77918 6.62192 9.74509 6.5791 9.70213L4.69506 7.81913C4.63474 7.75708 4.55321 7.72013 4.46679 7.71568C4.38037 7.71122 4.29544 7.73961 4.22906 7.79513C4.19453 7.82544 4.1666 7.86252 4.14697 7.90406C4.12734 7.94561 4.11642 7.99074 4.11493 8.03666C4.11343 8.08259 4.12136 8.12833 4.13824 8.17107C4.15512 8.2138 4.18059 8.25262 4.21307 8.28513L6.32305 10.3961C6.62356 10.6929 7.01268 10.8836 7.43133 10.9394C7.84998 10.9951 8.27536 10.9129 8.64306 10.7051C8.68801 10.6791 8.74054 10.6693 8.79187 10.6773C8.84319 10.6853 8.89023 10.7106 8.92511 10.7491L13.8721 16.1911C14.0108 16.3187 14.1936 16.3875 14.3821 16.3829C14.5705 16.3783 14.7498 16.3007 14.8821 16.1664C15.0144 16.0322 15.0894 15.8518 15.0913 15.6633C15.0932 15.4748 15.0217 15.293 14.8921 15.1561L9.4591 10.2161C9.42085 10.1813 9.39556 10.1346 9.38739 10.0835C9.37921 10.0324 9.38858 9.98013 9.41406 9.93513C9.62245 9.56732 9.70518 9.14154 9.64959 8.72247C9.594 8.30339 9.40315 7.9139 9.10607 7.61313L6.99511 5.50313C6.96393 5.47138 6.92671 5.44617 6.88568 5.42895C6.84464 5.41174 6.8006 5.40287 6.7561 5.40287C6.7116 5.40287 6.66756 5.41174 6.62652 5.42895C6.58549 5.44617 6.54827 5.47138 6.51709 5.50313Z" fill="white" stroke="white" stroke-width="0.167" stroke-miterlimit="10" />
            </svg>