<svg xmlns="http://www.w3.org/2000/svg" width="24" height="24" viewBox="0 0 24 24" fill="none">
    <path d="M14.966 8.15786C14.966 9.11167 14.5951 9.95949 13.9592 10.5954C13.3233 11.2312 12.4755 11.6022 11.5217 11.6022C10.5679 11.6022 9.72006 11.2312 9.08419 10.5954C8.44832 9.95949 8.07739 9.11167 8.07739 8.15786C8.07739 7.20405 8.44832 6.35623 9.08419 5.72036C9.72006 5.08449 10.5679 4.71356 11.5217 4.71356C12.4755 4.71356 13.3233 5.08449 13.9592 5.72036C14.5421 6.30324 14.966 7.20405 14.966 8.15786Z" stroke="black" stroke-miterlimit="10" />
    <path d="M13.5353 14.0926C12.8994 13.9336 12.2106 13.8806 11.5217 13.8806C9.87906 13.8806 8.34238 14.2515 7.01765 14.9934C5.69292 15.7352 4.68612 16.795 4.10324 18.2787C3.99726 18.5437 4.05025 18.8086 4.15623 19.0206C4.26221 19.2325 4.47416 19.3915 4.73911 19.3915H10.5149" stroke="black" stroke-miterlimit="10" stroke-linecap="round" />
    <path d="M14.5421 20.1864V17.8549C14.5421 16.7421 15.4429 15.8413 16.5557 15.8413H19.788" stroke="black" stroke-miterlimit="10" stroke-linecap="round" stroke-linejoin="round" />
    <path d="M18.1984 14.0397L20 15.8413L18.1984 17.59" stroke="black" stroke-miterlimit="10" stroke-linecap="round" stroke-linejoin="round" />
</svg>