<svg width="25" height="24" viewBox="0 0 25 24" fill="none" xmlns="http://www.w3.org/2000/svg">
    <path fill-rule="evenodd" clip-rule="evenodd" d="M12.5078 7.01709C10.95 7.01709 9.68494 8.28214 9.68494 9.83996C9.68494 11.3978 10.95 12.6628 12.5078 12.6628C14.0656 12.6628 15.3307 11.3978 15.3307 9.83996C15.3307 8.28214 14.0656 7.01709 12.5078 7.01709ZM11.0108 9.83996C11.0108 9.0144 11.6823 8.34295 12.5078 8.34295C13.3334 8.34295 14.0048 9.0144 14.0048 9.83996C14.0048 10.6655 13.3334 11.337 12.5078 11.337C11.6823 11.337 11.0108 10.6655 11.0108 9.83996Z" fill="#1976D2" />
    <path fill-rule="evenodd" clip-rule="evenodd" d="M12.508 3C8.80224 3 5.66699 6.13329 5.66699 9.84096C5.66699 13.1021 7.32298 15.8737 8.9134 17.7907C9.71416 18.756 10.5136 19.5232 11.1131 20.0496C11.4133 20.3132 11.6645 20.5174 11.8422 20.6568C11.9311 20.7266 12.0018 20.7802 12.051 20.817C12.0609 20.8244 12.0699 20.8311 12.0781 20.8371C12.0903 20.8461 12.1004 20.8536 12.1086 20.8596L12.1247 20.8713L12.1294 20.8747L12.131 20.8758C12.1312 20.876 12.1319 20.8765 12.5173 20.3371L12.1319 20.8765C12.3639 21.0422 12.6758 21.0411 12.9065 20.8737L12.5173 20.3371C12.9065 20.8737 12.9063 20.8738 12.9065 20.8737L12.9075 20.873L12.909 20.8719L12.9137 20.8684L12.9297 20.8566C12.9433 20.8466 12.9626 20.8322 12.9872 20.8136C13.0363 20.7763 13.1068 20.722 13.1956 20.6515C13.3731 20.5104 13.6241 20.3039 13.924 20.0378C14.5231 19.5064 15.3219 18.7331 16.1221 17.7641C17.7106 15.8407 19.3676 13.0691 19.3676 9.84096C19.3676 6.13139 16.2975 3 12.508 3ZM13.0441 19.046C12.8389 19.2281 12.6593 19.3793 12.5146 19.4975C12.3706 19.3812 12.1919 19.2324 11.9879 19.0533C11.4273 18.5611 10.6799 17.8435 9.93382 16.9442C8.43056 15.1322 6.99286 12.6557 6.99286 9.84096C6.99286 6.86578 9.53426 4.32587 12.508 4.32587C15.56 4.32587 18.0417 6.85845 18.0417 9.84096C18.0417 12.6208 16.6051 15.0972 15.0998 16.9199C14.3532 17.8239 13.6052 18.5482 13.0441 19.046Z" fill="#1976D2" />
</svg>