<svg xmlns="http://www.w3.org/2000/svg" width="24" height="24" viewBox="0 0 24 24" fill="none">
                            <rect width="24" height="24" fill="white" />
                            <path d="M18.3571 6.65037C17.939 6.23228 17.3815 6 16.7776 6H8.22985C7.62593 6 7.06847 6.23228 6.65037 6.65037C6.23228 7.06847 6 7.62593 6 8.22985V17.3351C6 17.6138 6.18582 17.8461 6.37164 17.939C6.60392 18.0319 6.88265 18.0319 7.06847 17.8461L9.25186 15.8485C9.43768 15.6627 9.71641 15.5233 9.94869 15.4304C10.181 15.3375 10.4597 15.291 10.7384 15.291H16.6847C17.2886 15.291 17.8461 15.0588 18.2642 14.6407C18.6823 14.2226 18.9145 13.6651 18.9145 13.0612V8.22985C19.0074 7.62593 18.7752 7.06847 18.3571 6.65037ZM16.2201 12.5037H11.5746C11.3423 12.5037 11.1101 12.2714 11.1101 12.0392C11.1101 11.8069 11.3423 11.5746 11.5746 11.5746H16.2201C16.4524 11.5746 16.6847 11.8069 16.6847 12.0392C16.6847 12.2714 16.4524 12.5037 16.2201 12.5037ZM16.2201 9.71641H9.25186C9.01958 9.71641 8.78731 9.48414 8.78731 9.25186C8.78731 9.01958 9.01958 8.78731 9.25186 8.78731H16.2201C16.4524 8.78731 16.6847 9.01958 16.6847 9.25186C16.6847 9.48414 16.4524 9.71641 16.2201 9.71641Z" fill="#1976D2" />
                        </svg>