<svg xmlns="http://www.w3.org/2000/svg" width="18" height="18" viewBox="0 0 18 18" fill="none">
              <g clip-path="url(#clip0_1_1441)">
                <path d="M9 18C13.9706 18 18 13.9706 18 9C18 4.02944 13.9706 0 9 0C4.02944 0 0 4.02944 0 9C0 13.9706 4.02944 18 9 18Z" fill="white" />
                <path d="M9 17.25C13.5563 17.25 17.25 13.5563 17.25 9C17.25 4.44365 13.5563 0.75 9 0.75C4.44365 0.75 0.75 4.44365 0.75 9C0.75 13.5563 4.44365 17.25 9 17.25Z" fill="#FF7979" />
                <path d="M8.81247 14.6255L6.57747 14.6356C6.55098 14.6354 6.52485 14.6295 6.50092 14.6181C6.47699 14.6068 6.45584 14.5903 6.43896 14.5699C6.42208 14.5495 6.40989 14.5256 6.40324 14.4999C6.39659 14.4743 6.39564 14.4475 6.40047 14.4215C6.456 14.1126 6.62609 13.836 6.87672 13.6471C6.95481 13.5892 7.03832 13.5389 7.1261 13.4971L7.12347 12.9162C7.50495 13.0036 7.88107 13.1129 8.24997 13.2436V13.4896C8.293 13.5088 8.33483 13.5306 8.37522 13.5548C8.41879 13.5803 8.46087 13.6082 8.50122 13.6385C8.75332 13.8249 8.92634 14.0991 8.98609 14.4068C8.99155 14.4329 8.9912 14.4599 8.98506 14.4858C8.97892 14.5118 8.96715 14.536 8.95057 14.5569C8.934 14.5778 8.91303 14.5947 8.88917 14.6066C8.8653 14.6184 8.83911 14.6249 8.81247 14.6255ZM7.12497 9.00047L7.13472 10.82C7.44334 10.8912 7.82847 10.9913 8.24997 11.129L8.23872 8.82084C9.03591 8.70921 9.77395 8.33751 10.3382 7.76344C10.9025 7.18938 11.2615 6.44508 11.3595 5.64609C11.364 5.59501 11.3576 5.54355 11.3409 5.49509C11.3241 5.44664 11.2973 5.40227 11.2621 5.36491C11.227 5.32755 11.1844 5.29804 11.137 5.27832C11.0897 5.2586 11.0387 5.2491 10.9875 5.25047L4.3376 5.28122C4.28642 5.28053 4.23567 5.29067 4.18869 5.31098C4.14171 5.33129 4.09956 5.36131 4.06499 5.39906C4.03043 5.4368 4.00424 5.48144 3.98815 5.53002C3.97205 5.57861 3.96641 5.63005 3.97159 5.68097C4.07769 6.4791 4.44428 7.2199 5.01446 7.78838C5.58464 8.35687 6.32652 8.72125 7.12497 8.82497V9.00047ZM13.4625 6.47934C13.4206 6.15856 13.3361 5.84479 13.2112 5.54634C13.0085 5.05141 12.6964 4.60878 12.2983 4.25159C11.9002 3.89441 11.4264 3.63194 10.9125 3.48384C10.1177 3.26802 9.27462 3.31338 8.5076 3.61322C8.1094 3.77003 7.7422 3.99629 7.42309 4.28147C7.23429 4.45583 7.07083 4.65577 6.93747 4.87547L8.9006 4.86684C9.27284 4.64694 9.69312 4.52118 10.125 4.50047C11.625 4.50047 12.5947 5.96297 12.4312 7.33847C12.3575 7.89518 12.0865 8.40696 11.6674 8.78077C11.2483 9.15458 10.709 9.3656 10.1475 9.37547L8.62497 9.38109L8.63097 10.5005L9.95959 10.4941C10.4623 10.4884 10.9582 10.3766 11.4147 10.166C11.8712 9.95534 12.278 9.65062 12.6086 9.27179C12.9391 8.89296 13.1859 8.44857 13.3327 7.96773C13.4795 7.48689 13.5231 6.98045 13.4606 6.48159L13.4625 6.47934ZM8.25259 11.4005C7.93784 11.291 7.61884 11.1961 7.29559 11.1158C7.17897 11.087 7.05897 11.0577 6.9401 11.0326C6.4121 10.9201 6.40947 10.514 6.7496 10.436L6.7436 9.11109C5.8811 9.15084 5.37034 9.86747 5.37447 10.7393C5.37768 11.0158 5.45065 11.2869 5.58662 11.5277C5.72258 11.7684 5.91713 11.9709 6.15222 12.1163C6.38724 12.2411 6.64028 12.3284 6.90222 12.3751C8.10651 12.6367 9.23471 13.1712 10.2 13.9373C10.2659 13.9936 10.3422 14.0363 10.4247 14.0629C10.5071 14.0896 10.594 14.0997 10.6803 14.0928C10.7667 14.0858 10.8508 14.0619 10.9279 14.0223C11.005 13.9828 11.0736 13.9284 11.1296 13.8623C11.1442 13.8447 11.1579 13.8263 11.1705 13.8072C11.1917 13.7763 11.2102 13.7435 11.2256 13.7093C11.2312 13.6992 11.2353 13.6865 11.2398 13.6763C11.2502 13.65 11.2593 13.623 11.2668 13.5957C11.2963 13.4764 11.2918 13.3512 11.2541 13.2342C11.2163 13.1172 11.1467 13.0131 11.0531 12.9335C10.2223 12.2538 9.27279 11.7341 8.25259 11.4005Z" fill="white" />
              </g>
              <defs>
                <clipPath id="clip0_1_1441">
                  <rect width="18" height="18" fill="white" />
                </clipPath>
              </defs>
            </svg>