<svg xmlns="http://www.w3.org/2000/svg" width="18" height="18" viewBox="0 0 18 18" fill="none">
                        <path d="M14 9.75C14.4142 9.75 14.75 9.41421 14.75 9C14.75 8.58579 14.4142 8.25 14 8.25C13.5858 8.25 13.25 8.58579 13.25 9C13.25 9.41421 13.5858 9.75 14 9.75Z" fill="black" />
                        <path d="M16.59 8.28999V12.9H13.1V11.28H4.49V12.9H1V8.28999C1 7.01999 2.03 5.98999 3.3 5.98999H14.3C15.56 5.98999 16.59 7.02999 16.59 8.28999Z" stroke="black" stroke-miterlimit="10" stroke-linejoin="round" />
                        <path d="M13.1 11.28H4.48999V16.61H13.1V11.28Z" stroke="black" stroke-miterlimit="10" stroke-linejoin="round" />
                        <path d="M13.44 1H4.15002V5.99H13.44V1Z" stroke="black" stroke-miterlimit="10" stroke-linejoin="round" />
                    </svg>