<svg xmlns="http://www.w3.org/2000/svg" width="24" height="24" viewBox="0 0 24 24" fill="none">
                            <path d="M6.72783 9.30964L15.0334 5.5475" stroke="#1976D2" stroke-width="1.5" stroke-miterlimit="1.96535" stroke-linecap="round" stroke-linejoin="round" />
                            <path d="M13.9331 8.40047L15.0364 5.54427L12.1802 4.441" stroke="#1976D2" stroke-width="1.5" stroke-linecap="round" stroke-linejoin="round" />
                            <path d="M5.57484 15.8365L16.5748 10.6694C17.238 10.3579 18 10.8419 18 11.5746V17C18 17.5523 17.5523 18 17 18H6C5.44772 18 5 17.5523 5 17V16.7416C5 16.354 5.224 16.0013 5.57484 15.8365Z" fill="#1976D2" />
                        </svg>