<svg xmlns="http://www.w3.org/2000/svg" width="34" height="27" viewBox="0 0 34 27" fill="none">
                                <rect x="0.857422" y="5.92857" width="24.8571" height="12" rx="6" fill="#2D96FF" fill-opacity="0.16" />
                                <g filter="url(#filter0_d_621_565)">
                                    <circle cx="20.1431" cy="11.5" r="9" fill="#1976D2" />
                                </g>
                                <defs>
                                    <filter id="filter0_d_621_565" x="7.14307" y="0.5" width="26" height="26" filterUnits="userSpaceOnUse" color-interpolation-filters="sRGB">
                                        <feFlood flood-opacity="0" result="BackgroundImageFix" />
                                        <feColorMatrix in="SourceAlpha" type="matrix" values="0 0 0 0 0 0 0 0 0 0 0 0 0 0 0 0 0 0 127 0" result="hardAlpha" />
                                        <feOffset dy="2" />
                                        <feGaussianBlur stdDeviation="2" />
                                        <feComposite in2="hardAlpha" operator="out" />
                                        <feColorMatrix type="matrix" values="0 0 0 0 0 0 0 0 0 0 0 0 0 0 0 0 0 0 0.1 0" />
                                        <feBlend mode="normal" in2="BackgroundImageFix" result="effect1_dropShadow_621_565" />
                                        <feBlend mode="normal" in="SourceGraphic" in2="effect1_dropShadow_621_565" result="shape" />
                                    </filter>
                                </defs>
                            </svg>